%YAML 1.1
%TAG !u! tag:unity3d.com,2011:
--- !u!1001 &5713651022692676460
PrefabInstance:
  m_ObjectHideFlags: 0
  serializedVersion: 2
  m_Modification:
    m_TransformParent: {fileID: 0}
    m_Modifications:
    - target: {fileID: -8679921383154817045, guid: ee90f1cee41a03848bdaf42e9cec4d6c, type: 3}
      propertyPath: m_RootOrder
      value: 0
      objectReference: {fileID: 0}
    - target: {fileID: -8679921383154817045, guid: ee90f1cee41a03848bdaf42e9cec4d6c, type: 3}
      propertyPath: m_LocalPosition.x
      value: 0
      objectReference: {fileID: 0}
    - target: {fileID: -8679921383154817045, guid: ee90f1cee41a03848bdaf42e9cec4d6c, type: 3}
      propertyPath: m_LocalPosition.y
      value: 0
      objectReference: {fileID: 0}
    - target: {fileID: -8679921383154817045, guid: ee90f1cee41a03848bdaf42e9cec4d6c, type: 3}
      propertyPath: m_LocalPosition.z
      value: 14.75
      objectReference: {fileID: 0}
    - target: {fileID: -8679921383154817045, guid: ee90f1cee41a03848bdaf42e9cec4d6c, type: 3}
      propertyPath: m_LocalRotation.w
      value: 1
      objectReference: {fileID: 0}
    - target: {fileID: -8679921383154817045, guid: ee90f1cee41a03848bdaf42e9cec4d6c, type: 3}
      propertyPath: m_LocalRotation.x
      value: 0
      objectReference: {fileID: 0}
    - target: {fileID: -8679921383154817045, guid: ee90f1cee41a03848bdaf42e9cec4d6c, type: 3}
      propertyPath: m_LocalRotation.y
      value: -0
      objectReference: {fileID: 0}
    - target: {fileID: -8679921383154817045, guid: ee90f1cee41a03848bdaf42e9cec4d6c, type: 3}
      propertyPath: m_LocalRotation.z
      value: -0
      objectReference: {fileID: 0}
    - target: {fileID: -8679921383154817045, guid: ee90f1cee41a03848bdaf42e9cec4d6c, type: 3}
      propertyPath: m_LocalEulerAnglesHint.x
      value: 0
      objectReference: {fileID: 0}
    - target: {fileID: -8679921383154817045, guid: ee90f1cee41a03848bdaf42e9cec4d6c, type: 3}
      propertyPath: m_LocalEulerAnglesHint.y
      value: 0
      objectReference: {fileID: 0}
    - target: {fileID: -8679921383154817045, guid: ee90f1cee41a03848bdaf42e9cec4d6c, type: 3}
      propertyPath: m_LocalEulerAnglesHint.z
      value: 0
      objectReference: {fileID: 0}
    - target: {fileID: 919132149155446097, guid: ee90f1cee41a03848bdaf42e9cec4d6c, type: 3}
      propertyPath: m_Name
      value: Roca_3
      objectReference: {fileID: 0}
    - target: {fileID: 919132149155446097, guid: ee90f1cee41a03848bdaf42e9cec4d6c, type: 3}
      propertyPath: m_Layer
      value: 2
      objectReference: {fileID: 0}
    - target: {fileID: 919132149155446097, guid: ee90f1cee41a03848bdaf42e9cec4d6c, type: 3}
      propertyPath: m_StaticEditorFlags
      value: 50
      objectReference: {fileID: 0}
    - target: {fileID: 5446770854580980291, guid: ee90f1cee41a03848bdaf42e9cec4d6c, type: 3}
      propertyPath: m_StaticEditorFlags
      value: 115
      objectReference: {fileID: 0}
    m_RemovedComponents: []
  m_SourcePrefab: {fileID: 100100000, guid: ee90f1cee41a03848bdaf42e9cec4d6c, type: 3}
