%YAML 1.1
%TAG !u! tag:unity3d.com,2011:
--- !u!65 &4062051328251947624
BoxCollider:
  m_ObjectHideFlags: 0
  m_CorrespondingSourceObject: {fileID: 0}
  m_PrefabInstance: {fileID: 0}
  m_PrefabAsset: {fileID: 0}
  m_GameObject: {fileID: 4482547147118132029}
  m_Material: {fileID: 13400000, guid: 9b76f2f6a86b106438f16512431bf7f8, type: 2}
  m_IsTrigger: 0
  m_Enabled: 1
  serializedVersion: 2
  m_Size: {x: 3.615491, y: 1.7191856, z: 2.4948065}
  m_Center: {x: 0.24124092, y: 0, z: 0}
--- !u!1001 &3671662059586029164
PrefabInstance:
  m_ObjectHideFlags: 0
  serializedVersion: 2
  m_Modification:
    m_TransformParent: {fileID: 0}
    m_Modifications:
    - target: {fileID: -8679921383154817045, guid: 85bd465e9e0a4d246999ea29c0b10d27, type: 3}
      propertyPath: m_RootOrder
      value: 0
      objectReference: {fileID: 0}
    - target: {fileID: -8679921383154817045, guid: 85bd465e9e0a4d246999ea29c0b10d27, type: 3}
      propertyPath: m_LocalPosition.x
      value: 0
      objectReference: {fileID: 0}
    - target: {fileID: -8679921383154817045, guid: 85bd465e9e0a4d246999ea29c0b10d27, type: 3}
      propertyPath: m_LocalPosition.y
      value: 0
      objectReference: {fileID: 0}
    - target: {fileID: -8679921383154817045, guid: 85bd465e9e0a4d246999ea29c0b10d27, type: 3}
      propertyPath: m_LocalPosition.z
      value: 31.25
      objectReference: {fileID: 0}
    - target: {fileID: -8679921383154817045, guid: 85bd465e9e0a4d246999ea29c0b10d27, type: 3}
      propertyPath: m_LocalRotation.w
      value: 1
      objectReference: {fileID: 0}
    - target: {fileID: -8679921383154817045, guid: 85bd465e9e0a4d246999ea29c0b10d27, type: 3}
      propertyPath: m_LocalRotation.x
      value: 0
      objectReference: {fileID: 0}
    - target: {fileID: -8679921383154817045, guid: 85bd465e9e0a4d246999ea29c0b10d27, type: 3}
      propertyPath: m_LocalRotation.y
      value: -0
      objectReference: {fileID: 0}
    - target: {fileID: -8679921383154817045, guid: 85bd465e9e0a4d246999ea29c0b10d27, type: 3}
      propertyPath: m_LocalRotation.z
      value: -0
      objectReference: {fileID: 0}
    - target: {fileID: -8679921383154817045, guid: 85bd465e9e0a4d246999ea29c0b10d27, type: 3}
      propertyPath: m_LocalEulerAnglesHint.x
      value: 0
      objectReference: {fileID: 0}
    - target: {fileID: -8679921383154817045, guid: 85bd465e9e0a4d246999ea29c0b10d27, type: 3}
      propertyPath: m_LocalEulerAnglesHint.y
      value: 0
      objectReference: {fileID: 0}
    - target: {fileID: -8679921383154817045, guid: 85bd465e9e0a4d246999ea29c0b10d27, type: 3}
      propertyPath: m_LocalEulerAnglesHint.z
      value: 0
      objectReference: {fileID: 0}
    - target: {fileID: -6792118442261059291, guid: 85bd465e9e0a4d246999ea29c0b10d27, type: 3}
      propertyPath: m_StaticEditorFlags
      value: 115
      objectReference: {fileID: 0}
    - target: {fileID: 919132149155446097, guid: 85bd465e9e0a4d246999ea29c0b10d27, type: 3}
      propertyPath: m_Name
      value: Roca_6
      objectReference: {fileID: 0}
    - target: {fileID: 919132149155446097, guid: 85bd465e9e0a4d246999ea29c0b10d27, type: 3}
      propertyPath: m_Layer
      value: 2
      objectReference: {fileID: 0}
    - target: {fileID: 919132149155446097, guid: 85bd465e9e0a4d246999ea29c0b10d27, type: 3}
      propertyPath: m_StaticEditorFlags
      value: 50
      objectReference: {fileID: 0}
    m_RemovedComponents: []
  m_SourcePrefab: {fileID: 100100000, guid: 85bd465e9e0a4d246999ea29c0b10d27, type: 3}
--- !u!1 &4482547147118132029 stripped
GameObject:
  m_CorrespondingSourceObject: {fileID: 919132149155446097, guid: 85bd465e9e0a4d246999ea29c0b10d27, type: 3}
  m_PrefabInstance: {fileID: 3671662059586029164}
  m_PrefabAsset: {fileID: 0}
