%YAML 1.1
%TAG !u! tag:unity3d.com,2011:
--- !u!1001 &1397207711996843834
PrefabInstance:
  m_ObjectHideFlags: 0
  serializedVersion: 2
  m_Modification:
    m_TransformParent: {fileID: 0}
    m_Modifications:
    - target: {fileID: -8679921383154817045, guid: 8d3c92dd4101b0d42b4f1ba21340cb5f, type: 3}
      propertyPath: m_RootOrder
      value: 0
      objectReference: {fileID: 0}
    - target: {fileID: -8679921383154817045, guid: 8d3c92dd4101b0d42b4f1ba21340cb5f, type: 3}
      propertyPath: m_LocalPosition.x
      value: -1
      objectReference: {fileID: 0}
    - target: {fileID: -8679921383154817045, guid: 8d3c92dd4101b0d42b4f1ba21340cb5f, type: 3}
      propertyPath: m_LocalPosition.y
      value: 0
      objectReference: {fileID: 0}
    - target: {fileID: -8679921383154817045, guid: 8d3c92dd4101b0d42b4f1ba21340cb5f, type: 3}
      propertyPath: m_LocalPosition.z
      value: -4
      objectReference: {fileID: 0}
    - target: {fileID: -8679921383154817045, guid: 8d3c92dd4101b0d42b4f1ba21340cb5f, type: 3}
      propertyPath: m_LocalRotation.w
      value: 0.7071067
      objectReference: {fileID: 0}
    - target: {fileID: -8679921383154817045, guid: 8d3c92dd4101b0d42b4f1ba21340cb5f, type: 3}
      propertyPath: m_LocalRotation.x
      value: -0.7071068
      objectReference: {fileID: 0}
    - target: {fileID: -8679921383154817045, guid: 8d3c92dd4101b0d42b4f1ba21340cb5f, type: 3}
      propertyPath: m_LocalRotation.y
      value: 0
      objectReference: {fileID: 0}
    - target: {fileID: -8679921383154817045, guid: 8d3c92dd4101b0d42b4f1ba21340cb5f, type: 3}
      propertyPath: m_LocalRotation.z
      value: -0
      objectReference: {fileID: 0}
    - target: {fileID: -8679921383154817045, guid: 8d3c92dd4101b0d42b4f1ba21340cb5f, type: 3}
      propertyPath: m_LocalEulerAnglesHint.x
      value: 0
      objectReference: {fileID: 0}
    - target: {fileID: -8679921383154817045, guid: 8d3c92dd4101b0d42b4f1ba21340cb5f, type: 3}
      propertyPath: m_LocalEulerAnglesHint.y
      value: 0
      objectReference: {fileID: 0}
    - target: {fileID: -8679921383154817045, guid: 8d3c92dd4101b0d42b4f1ba21340cb5f, type: 3}
      propertyPath: m_LocalEulerAnglesHint.z
      value: 0
      objectReference: {fileID: 0}
    - target: {fileID: -7511558181221131132, guid: 8d3c92dd4101b0d42b4f1ba21340cb5f, type: 3}
      propertyPath: m_Materials.Array.data[0]
      value: 
      objectReference: {fileID: 2100000, guid: 55ca8966bd586f7469081c9b7c2cfd05, type: 2}
    - target: {fileID: 919132149155446097, guid: 8d3c92dd4101b0d42b4f1ba21340cb5f, type: 3}
      propertyPath: m_Name
      value: tabla_2
      objectReference: {fileID: 0}
    - target: {fileID: 919132149155446097, guid: 8d3c92dd4101b0d42b4f1ba21340cb5f, type: 3}
      propertyPath: m_Layer
      value: 2
      objectReference: {fileID: 0}
    - target: {fileID: 919132149155446097, guid: 8d3c92dd4101b0d42b4f1ba21340cb5f, type: 3}
      propertyPath: m_StaticEditorFlags
      value: 50
      objectReference: {fileID: 0}
    m_RemovedComponents: []
  m_SourcePrefab: {fileID: 100100000, guid: 8d3c92dd4101b0d42b4f1ba21340cb5f, type: 3}
